<?xml version="1.0" encoding="UTF-8" standalone="no"?>
<!-- Created with Inkscape (http://www.inkscape.org/) -->

<svg
   width="32"
   height="32"
   viewBox="0 0 8.4666659 8.4666659"
   version="1.1"
   id="svg8"
   inkscape:version="1.3 (0e150ed6c4, 2023-07-21)"
   sodipodi:docname="github_sponsors1.svg"
   xmlns:inkscape="http://www.inkscape.org/namespaces/inkscape"
   xmlns:sodipodi="http://sodipodi.sourceforge.net/DTD/sodipodi-0.dtd"
   xmlns="http://www.w3.org/2000/svg"
   xmlns:svg="http://www.w3.org/2000/svg"
   xmlns:rdf="http://www.w3.org/1999/02/22-rdf-syntax-ns#"
   xmlns:cc="http://creativecommons.org/ns#"
   xmlns:dc="http://purl.org/dc/elements/1.1/">
  <defs
     id="defs2" />
  <sodipodi:namedview
     id="base"
     pagecolor="#ffffff"
     bordercolor="#666666"
     borderopacity="1.0"
     inkscape:pageopacity="0.0"
     inkscape:pageshadow="2"
     inkscape:zoom="11.2"
     inkscape:cx="7.9464286"
     inkscape:cy="28.169643"
     inkscape:document-units="mm"
     inkscape:current-layer="layer1"
     showgrid="false"
     units="px"
     showguides="true"
     inkscape:guide-bbox="true"
     inkscape:window-width="2560"
     inkscape:window-height="1386"
     inkscape:window-x="0"
     inkscape:window-y="54"
     inkscape:window-maximized="1"
     inkscape:lockguides="true"
     inkscape:showpageshadow="2"
     inkscape:pagecheckerboard="0"
     inkscape:deskcolor="#d1d1d1">
    <sodipodi:guide
       position="0,0"
       orientation="0,32"
       id="guide815"
       inkscape:locked="true" />
    <sodipodi:guide
       position="8.4666659,0"
       orientation="-32,0"
       id="guide817"
       inkscape:locked="true" />
    <sodipodi:guide
       position="8.4666659,8.4666659"
       orientation="0,-32"
       id="guide819"
       inkscape:locked="true" />
    <sodipodi:guide
       position="0,8.4666659"
       orientation="32,0"
       id="guide821"
       inkscape:locked="true" />
    <sodipodi:guide
       position="0,4.233333"
       orientation="0,1"
       id="guide823"
       inkscape:locked="true"
       inkscape:label=""
       inkscape:color="rgb(0,0,255)" />
    <sodipodi:guide
       position="4.233333,0"
       orientation="1,0"
       id="guide825"
       inkscape:locked="true"
       inkscape:label=""
       inkscape:color="rgb(0,0,255)" />
    <sodipodi:guide
       position="1.0583332,0"
       orientation="1,0"
       id="guide846"
       inkscape:locked="true"
       inkscape:label=""
       inkscape:color="rgb(0,0,255)" />
    <sodipodi:guide
       position="7.4083327,0"
       orientation="1,0"
       id="guide848"
       inkscape:locked="true"
       inkscape:label=""
       inkscape:color="rgb(0,0,255)" />
    <sodipodi:guide
       position="0,7.4083327"
       orientation="0,1"
       id="guide850"
       inkscape:locked="true"
       inkscape:label=""
       inkscape:color="rgb(0,0,255)" />
    <sodipodi:guide
       position="0,1.0583332"
       orientation="0,1"
       id="guide852"
       inkscape:locked="true"
       inkscape:label=""
       inkscape:color="rgb(0,0,255)" />
  </sodipodi:namedview>
  <metadata
     id="metadata5">
    <rdf:RDF>
      <cc:Work
         rdf:about="">
        <dc:format>image/svg+xml</dc:format>
        <dc:type
           rdf:resource="http://purl.org/dc/dcmitype/StillImage" />
        <dc:title />
        <cc:license
           rdf:resource="http://creativecommons.org/publicdomain/zero/1.0/" />
      </cc:Work>
      <cc:License
         rdf:about="http://creativecommons.org/publicdomain/zero/1.0/">
        <cc:permits
           rdf:resource="http://creativecommons.org/ns#Reproduction" />
        <cc:permits
           rdf:resource="http://creativecommons.org/ns#Distribution" />
        <cc:permits
           rdf:resource="http://creativecommons.org/ns#DerivativeWorks" />
      </cc:License>
    </rdf:RDF>
  </metadata>
  <g
     inkscape:label="Layer 1"
     inkscape:groupmode="layer"
     id="layer1"
     transform="translate(0,-288.53334)">
    <path
       d="m 4.2333353,295.47734 0.1463867,0.28258 a 0.31823283,0.31823283 0 0 1 -0.2927741,0 l -0.0034,-0.002 -0.00763,-0.005 a 3.0346683,3.0346683 0 0 1 -0.1315365,-0.0722 9.3581667,9.3581667 0 0 1 -1.457082,-1.02428 c -0.7807312,-0.67339 -1.64844621,-1.68366 -1.64844621,-2.89294 0,-1.13037 0.88511171,-1.90941 1.80331951,-1.90941 0.6564082,0 1.2317732,0.3403 1.5911641,0.85711 0.359391,-0.51681 0.9347558,-0.85711 1.5911642,-0.85711 0.9182078,0 1.8033193,0.77904 1.8033193,1.90941 0,1.20928 -0.8677149,2.21955 -1.6484461,2.89294 a 9.3628342,9.3628342 0 0 1 -1.5886183,1.09642 l -0.00763,0.005 -0.00254,0.001 h -8.54e-4 z M 2.6421712,290.4917 c -0.5668787,0 -1.1668538,0.49389 -1.1668538,1.27293 0,0.91226 0.6704106,1.75833 1.4278046,2.41093 a 8.7323088,8.7323088 0 0 0 1.3302133,0.93814 8.7323088,8.7323088 0 0 0 1.3302132,-0.93814 c 0.7573943,-0.6526 1.4278047,-1.49867 1.4278047,-2.41093 0,-0.77904 -0.5999749,-1.27293 -1.1668537,-1.27293 -0.5825783,0 -1.107026,0.41837 -1.2852363,1.0421 a 0.31780851,0.31780851 0 0 1 -0.6118557,0 c -0.1782104,-0.62373 -0.7026581,-1.0421 -1.2852363,-1.0421 z"
       id="path1"
       style="stroke-width:0.424309" />
  </g>
</svg>
