<?xml version="1.0" encoding="UTF-8" standalone="no"?>
<!-- Created with Inkscape (http://www.inkscape.org/) -->

<svg
   xmlns:dc="http://purl.org/dc/elements/1.1/"
   xmlns:cc="http://creativecommons.org/ns#"
   xmlns:rdf="http://www.w3.org/1999/02/22-rdf-syntax-ns#"
   xmlns:svg="http://www.w3.org/2000/svg"
   xmlns="http://www.w3.org/2000/svg"
   xmlns:sodipodi="http://sodipodi.sourceforge.net/DTD/sodipodi-0.dtd"
   xmlns:inkscape="http://www.inkscape.org/namespaces/inkscape"
   width="32"
   height="32"
   viewBox="0 0 8.4666659 8.4666659"
   version="1.1"
   id="svg8"
   inkscape:version="0.92.5 (2060ec1f9f, 2020-04-08)"
   sodipodi:docname="ko-fi.svg">
  <defs
     id="defs2" />
  <sodipodi:namedview
     id="base"
     pagecolor="#ffffff"
     bordercolor="#666666"
     borderopacity="1.0"
     inkscape:pageopacity="0.0"
     inkscape:pageshadow="2"
     inkscape:zoom="13.109375"
     inkscape:cx="11.88803"
     inkscape:cy="15.28525"
     inkscape:document-units="mm"
     inkscape:current-layer="layer1"
     showgrid="false"
     units="px"
     showguides="true"
     inkscape:guide-bbox="true"
     inkscape:window-width="1920"
     inkscape:window-height="1015"
     inkscape:window-x="0"
     inkscape:window-y="36"
     inkscape:window-maximized="1"
     inkscape:lockguides="true">
    <sodipodi:guide
       position="0,0"
       orientation="0,32"
       id="guide815"
       inkscape:locked="true" />
    <sodipodi:guide
       position="8.4666659,0"
       orientation="-32,0"
       id="guide817"
       inkscape:locked="true" />
    <sodipodi:guide
       position="8.4666659,8.4666659"
       orientation="0,-32"
       id="guide819"
       inkscape:locked="true" />
    <sodipodi:guide
       position="0,8.4666659"
       orientation="32,0"
       id="guide821"
       inkscape:locked="true" />
    <sodipodi:guide
       position="0,4.233333"
       orientation="0,1"
       id="guide823"
       inkscape:locked="true"
       inkscape:label=""
       inkscape:color="rgb(0,0,255)" />
    <sodipodi:guide
       position="4.233333,0"
       orientation="1,0"
       id="guide825"
       inkscape:locked="true"
       inkscape:label=""
       inkscape:color="rgb(0,0,255)" />
    <sodipodi:guide
       position="1.0583332,0"
       orientation="1,0"
       id="guide846"
       inkscape:locked="true"
       inkscape:label=""
       inkscape:color="rgb(0,0,255)" />
    <sodipodi:guide
       position="7.4083327,0"
       orientation="1,0"
       id="guide848"
       inkscape:locked="true"
       inkscape:label=""
       inkscape:color="rgb(0,0,255)" />
    <sodipodi:guide
       position="0,7.4083327"
       orientation="0,1"
       id="guide850"
       inkscape:locked="true"
       inkscape:label=""
       inkscape:color="rgb(0,0,255)" />
    <sodipodi:guide
       position="0,1.0583332"
       orientation="0,1"
       id="guide852"
       inkscape:locked="true"
       inkscape:label=""
       inkscape:color="rgb(0,0,255)" />
  </sodipodi:namedview>
  <metadata
     id="metadata5">
    <rdf:RDF>
      <cc:Work
         rdf:about="">
        <dc:format>image/svg+xml</dc:format>
        <dc:type
           rdf:resource="http://purl.org/dc/dcmitype/StillImage" />
        <dc:title></dc:title>
        <cc:license
           rdf:resource="http://creativecommons.org/publicdomain/zero/1.0/" />
      </cc:Work>
      <cc:License
         rdf:about="http://creativecommons.org/publicdomain/zero/1.0/">
        <cc:permits
           rdf:resource="http://creativecommons.org/ns#Reproduction" />
        <cc:permits
           rdf:resource="http://creativecommons.org/ns#Distribution" />
        <cc:permits
           rdf:resource="http://creativecommons.org/ns#DerivativeWorks" />
      </cc:License>
    </rdf:RDF>
  </metadata>
  <g
     inkscape:label="Layer 1"
     inkscape:groupmode="layer"
     id="layer1"
     transform="translate(0,-288.53334)">
    <path
       inkscape:connector-curvature="0"
       d="M 8.1346591,292.04123 C 7.9100512,290.85457 6.723183,290.70709 6.723183,290.70709 H 1.4077652 c -0.1753724,0 -0.1971577,0.2318 -0.1971577,0.2318 0,0 -0.023746,2.12734 -0.00632,3.43402 0.04771,0.70411 0.7511603,0.77622 0.7511603,0.77622 0,0 2.4014038,-0.007 3.4758594,-0.0142 0.7082436,-0.12375 0.7792638,-0.74528 0.772074,-1.0847 1.2642071,0.0697 2.1558828,-0.8224 1.9312757,-2.00884 z m -3.213128,1.01977 c -0.3618554,0.42198 -1.1650831,1.15485 -1.1650831,1.15485 0,0 -0.035076,0.0347 -0.089973,0.007 -0.022001,-0.0165 -0.031371,-0.0261 -0.031371,-0.0261 -0.1287518,-0.12809 -0.9783822,-0.88557 -1.1718364,-1.14852 -0.2058718,-0.28038 -0.3023816,-0.78428 -0.026357,-1.07773 0.2762382,-0.29345 0.8729404,-0.31545 1.2672561,0.1183 0,0 0.4546608,-0.51763 1.0073563,-0.27972 0.5531311,0.23811 0.5322171,0.87468 0.2100117,1.25222 z m 1.7931562,0.13877 c -0.2694857,0.0338 -0.4886469,0.008 -0.4886469,0.008 v -1.65025 H 6.740176 c 0,0 0.5725201,0.16013 0.5725201,0.76619 0,0.55575 -0.2860423,0.77469 -0.5980088,0.87578 z"
       id="path4-6"
       style="stroke-width:0.21785392" />
  </g>
</svg>
