<?xml version="1.0" encoding="UTF-8" standalone="no"?>
<!-- Created with Inkscape (http://www.inkscape.org/) -->

<svg
   xmlns:dc="http://purl.org/dc/elements/1.1/"
   xmlns:cc="http://creativecommons.org/ns#"
   xmlns:rdf="http://www.w3.org/1999/02/22-rdf-syntax-ns#"
   xmlns:svg="http://www.w3.org/2000/svg"
   xmlns="http://www.w3.org/2000/svg"
   xmlns:sodipodi="http://sodipodi.sourceforge.net/DTD/sodipodi-0.dtd"
   xmlns:inkscape="http://www.inkscape.org/namespaces/inkscape"
   width="32"
   height="32"
   viewBox="0 0 8.4666659 8.4666659"
   version="1.1"
   id="svg8"
   inkscape:version="0.92.5 (2060ec1f9f, 2020-04-08)"
   sodipodi:docname="matrix.svg">
  <defs
     id="defs2" />
  <sodipodi:namedview
     id="base"
     pagecolor="#ffffff"
     bordercolor="#666666"
     borderopacity="1.0"
     inkscape:pageopacity="0.0"
     inkscape:pageshadow="2"
     inkscape:zoom="16"
     inkscape:cx="23.731419"
     inkscape:cy="11.069633"
     inkscape:document-units="mm"
     inkscape:current-layer="layer1"
     showgrid="false"
     units="px"
     showguides="true"
     inkscape:guide-bbox="true"
     inkscape:window-width="1920"
     inkscape:window-height="1015"
     inkscape:window-x="0"
     inkscape:window-y="36"
     inkscape:window-maximized="1"
     inkscape:lockguides="true"
     inkscape:snap-global="true">
    <sodipodi:guide
       position="0,0"
       orientation="0,32"
       id="guide815"
       inkscape:locked="true" />
    <sodipodi:guide
       position="8.4666659,0"
       orientation="-32,0"
       id="guide817"
       inkscape:locked="true" />
    <sodipodi:guide
       position="8.4666659,8.4666659"
       orientation="0,-32"
       id="guide819"
       inkscape:locked="true" />
    <sodipodi:guide
       position="0,8.4666659"
       orientation="32,0"
       id="guide821"
       inkscape:locked="true" />
    <sodipodi:guide
       position="0,4.233333"
       orientation="0,1"
       id="guide823"
       inkscape:locked="true"
       inkscape:label=""
       inkscape:color="rgb(0,0,255)" />
    <sodipodi:guide
       position="4.233333,0"
       orientation="1,0"
       id="guide825"
       inkscape:locked="true"
       inkscape:label=""
       inkscape:color="rgb(0,0,255)" />
    <sodipodi:guide
       position="1.0583332,0"
       orientation="1,0"
       id="guide846"
       inkscape:locked="true"
       inkscape:label=""
       inkscape:color="rgb(0,0,255)" />
    <sodipodi:guide
       position="7.4083327,0"
       orientation="1,0"
       id="guide848"
       inkscape:locked="true"
       inkscape:label=""
       inkscape:color="rgb(0,0,255)" />
    <sodipodi:guide
       position="0,7.4083327"
       orientation="0,1"
       id="guide850"
       inkscape:locked="true"
       inkscape:label=""
       inkscape:color="rgb(0,0,255)" />
    <sodipodi:guide
       position="0,1.0583332"
       orientation="0,1"
       id="guide852"
       inkscape:locked="true"
       inkscape:label=""
       inkscape:color="rgb(0,0,255)" />
  </sodipodi:namedview>
  <metadata
     id="metadata5">
    <rdf:RDF>
      <cc:Work
         rdf:about="">
        <dc:format>image/svg+xml</dc:format>
        <dc:type
           rdf:resource="http://purl.org/dc/dcmitype/StillImage" />
        <dc:title></dc:title>
        <cc:license
           rdf:resource="http://creativecommons.org/publicdomain/zero/1.0/" />
      </cc:Work>
      <cc:License
         rdf:about="http://creativecommons.org/publicdomain/zero/1.0/">
        <cc:permits
           rdf:resource="http://creativecommons.org/ns#Reproduction" />
        <cc:permits
           rdf:resource="http://creativecommons.org/ns#Distribution" />
        <cc:permits
           rdf:resource="http://creativecommons.org/ns#DerivativeWorks" />
      </cc:License>
    </rdf:RDF>
  </metadata>
  <g
     inkscape:label="Layer 1"
     inkscape:groupmode="layer"
     id="layer1"
     transform="translate(0,-288.53334)">
    <path
       style="stroke-width:0.99999994"
       d="M 26.798828 2.6660156 L 26.798828 3.6308594 L 28.277344 3.6308594 L 28.277344 28.367188 L 26.798828 28.367188 L 26.798828 29.332031 L 29.332031 29.332031 L 29.332031 2.6660156 L 26.798828 2.6660156 z M 2.6679688 2.6679688 L 2.6679688 29.332031 L 5.2011719 29.332031 L 5.2011719 28.369141 L 3.7226562 28.369141 L 3.7226562 3.6328125 L 5.2011719 3.6328125 L 5.2011719 2.6679688 L 2.6679688 2.6679688 z M 19.785156 11.085938 C 19.122156 11.085938 18.548406 11.245461 18.066406 11.564453 C 17.584407 11.882463 17.199967 12.251023 16.917969 12.666016 C 16.656969 12.082041 16.283156 11.666476 15.785156 11.435547 C 15.288156 11.205752 14.738672 11.087891 14.138672 11.087891 C 13.512672 11.087891 12.953656 11.220062 12.472656 11.492188 C 11.990656 11.759173 11.575422 12.138878 11.232422 12.630859 L 11.195312 12.630859 L 11.195312 11.345703 L 8.7324219 11.34375 L 8.7324219 20.859375 L 11.341797 20.859375 L 11.341797 15.34375 C 11.341797 14.877734 11.409967 14.498937 11.542969 14.210938 C 11.676967 13.924109 11.841249 13.701899 12.03125 13.548828 C 12.22025 13.395001 12.419139 13.293399 12.619141 13.236328 C 12.819141 13.180769 12.984421 13.154297 13.107422 13.154297 C 13.527422 13.154297 13.840641 13.226148 14.056641 13.365234 L 14.060547 13.369141 C 14.263548 13.499119 14.423577 13.689875 14.517578 13.923828 C 14.610998 14.16073 14.667923 14.418066 14.677734 14.689453 C 14.693722 14.965472 14.697266 15.241485 14.697266 15.523438 L 14.697266 20.857422 L 17.308594 20.857422 L 17.308594 15.558594 C 17.310593 15.251621 17.334 14.948665 17.375 14.6875 L 17.376953 14.677734 C 17.413955 14.399712 17.50386 14.137055 17.630859 13.914062 L 17.634766 13.90625 C 17.760766 13.684278 17.941063 13.497328 18.164062 13.359375 C 18.389063 13.220288 18.687642 13.150391 19.056641 13.150391 C 19.420641 13.150391 19.711734 13.211906 19.927734 13.333984 L 19.933594 13.337891 C 20.134353 13.452196 20.30111 13.619032 20.414062 13.828125 L 20.416016 13.832031 C 20.526621 14.05309 20.595583 14.299209 20.615234 14.564453 C 20.640255 14.845461 20.652344 15.148939 20.652344 15.466797 L 20.652344 20.857422 L 23.261719 20.857422 L 23.261719 14.492188 C 23.261719 13.877183 23.174861 13.352955 23.005859 12.917969 C 22.830859 12.481962 22.594109 12.133454 22.287109 11.861328 C 21.979109 11.590185 21.614594 11.395516 21.183594 11.273438 C 20.752594 11.149469 20.288156 11.085938 19.785156 11.085938 z "
       transform="matrix(0.26458333,0,0,0.26458333,0,288.53334)"
       id="path901-3" />
  </g>
</svg>
