<?xml version="1.0" encoding="UTF-8" standalone="no"?>
<!-- Created with Inkscape (http://www.inkscape.org/) -->

<svg
   xmlns:dc="http://purl.org/dc/elements/1.1/"
   xmlns:cc="http://creativecommons.org/ns#"
   xmlns:rdf="http://www.w3.org/1999/02/22-rdf-syntax-ns#"
   xmlns:svg="http://www.w3.org/2000/svg"
   xmlns="http://www.w3.org/2000/svg"
   xmlns:sodipodi="http://sodipodi.sourceforge.net/DTD/sodipodi-0.dtd"
   xmlns:inkscape="http://www.inkscape.org/namespaces/inkscape"
   width="32"
   height="32"
   viewBox="0 0 8.4666659 8.4666659"
   version="1.1"
   id="svg8"
   inkscape:version="0.92.5 (2060ec1f9f, 2020-04-08)"
   sodipodi:docname="new_tab.svg">
  <defs
     id="defs2" />
  <sodipodi:namedview
     id="base"
     pagecolor="#ffffff"
     bordercolor="#666666"
     borderopacity="1.0"
     inkscape:pageopacity="0.0"
     inkscape:pageshadow="2"
     inkscape:zoom="16"
     inkscape:cx="23.731419"
     inkscape:cy="11.069633"
     inkscape:document-units="mm"
     inkscape:current-layer="layer1"
     showgrid="false"
     units="px"
     showguides="true"
     inkscape:guide-bbox="true"
     inkscape:window-width="1920"
     inkscape:window-height="1015"
     inkscape:window-x="0"
     inkscape:window-y="36"
     inkscape:window-maximized="1"
     inkscape:lockguides="true"
     inkscape:snap-global="true">
    <sodipodi:guide
       position="0,0"
       orientation="0,32"
       id="guide815"
       inkscape:locked="true" />
    <sodipodi:guide
       position="8.4666659,0"
       orientation="-32,0"
       id="guide817"
       inkscape:locked="true" />
    <sodipodi:guide
       position="8.4666659,8.4666659"
       orientation="0,-32"
       id="guide819"
       inkscape:locked="true" />
    <sodipodi:guide
       position="0,8.4666659"
       orientation="32,0"
       id="guide821"
       inkscape:locked="true" />
    <sodipodi:guide
       position="0,4.233333"
       orientation="0,1"
       id="guide823"
       inkscape:locked="true"
       inkscape:label=""
       inkscape:color="rgb(0,0,255)" />
    <sodipodi:guide
       position="4.233333,0"
       orientation="1,0"
       id="guide825"
       inkscape:locked="true"
       inkscape:label=""
       inkscape:color="rgb(0,0,255)" />
    <sodipodi:guide
       position="1.0583332,0"
       orientation="1,0"
       id="guide846"
       inkscape:locked="true"
       inkscape:label=""
       inkscape:color="rgb(0,0,255)" />
    <sodipodi:guide
       position="7.4083327,0"
       orientation="1,0"
       id="guide848"
       inkscape:locked="true"
       inkscape:label=""
       inkscape:color="rgb(0,0,255)" />
    <sodipodi:guide
       position="0,7.4083327"
       orientation="0,1"
       id="guide850"
       inkscape:locked="true"
       inkscape:label=""
       inkscape:color="rgb(0,0,255)" />
    <sodipodi:guide
       position="0,1.0583332"
       orientation="0,1"
       id="guide852"
       inkscape:locked="true"
       inkscape:label=""
       inkscape:color="rgb(0,0,255)" />
  </sodipodi:namedview>
  <metadata
     id="metadata5">
    <rdf:RDF>
      <cc:Work
         rdf:about="">
        <dc:format>image/svg+xml</dc:format>
        <dc:type
           rdf:resource="http://purl.org/dc/dcmitype/StillImage" />
        <dc:title></dc:title>
        <cc:license
           rdf:resource="http://creativecommons.org/publicdomain/zero/1.0/" />
      </cc:Work>
      <cc:License
         rdf:about="http://creativecommons.org/publicdomain/zero/1.0/">
        <cc:permits
           rdf:resource="http://creativecommons.org/ns#Reproduction" />
        <cc:permits
           rdf:resource="http://creativecommons.org/ns#Distribution" />
        <cc:permits
           rdf:resource="http://creativecommons.org/ns#DerivativeWorks" />
      </cc:License>
    </rdf:RDF>
  </metadata>
  <g
     inkscape:label="Layer 1"
     inkscape:groupmode="layer"
     id="layer1"
     transform="translate(0,-288.53334)">
    <path
       inkscape:connector-curvature="0"
       d="m 4.9839565,289.4152 h 2.600854 v 2.60085 h -0.750623 v -1.32662 l -3.648075,3.64808 -0.5236105,-0.52361 3.6480745,-3.64808 h -1.32662 z m 1.850231,5.95233 v -2.60085 h 0.750623 v 2.60085 c 0,0.40137 -0.348986,0.75062 -0.750623,0.75062 H 1.6324791 c -0.4188354,0 -0.75062292,-0.34898 -0.75062292,-0.75062 v -5.20171 c 0,-0.40137 0.33152292,-0.75062 0.75062292,-0.75062 h 2.6008544 v 0.75062 H 1.6324791 v 5.20171 z"
       id="path4"
       style="stroke-width:0.26458332" />
  </g>
</svg>
